…
There is still a (T) in the first column to indicate ties. Using `gsub()` remove this.

``` r
NPI_table[[1]] <- gsub(pattern = "\\(T\\)", "", NPI_table[[1]])
```

Now let us set the type in the table. The first column, "Rank", will be set to factor. The second, "Country" is already character so no change is necessary. The third through the eighth should be numeric.

``` r
NPI_table[[1]] <- as.factor(NPI_table[[1]])
NPI_table[, 3:8] <- tibble::as_tibble(lapply(NPI_table[, 3:8], as.numeric))
NPI_table
```

    ## # A tibble: 199 × 8
    ##      Rank     Country   VFT     T     P    DC     F Total
    ## *  <fctr>       <chr> <dbl> <dbl> <dbl> <dbl> <dbl> <dbl>
    ## 1       1      Sweden   176    30    50    50    50 109.0
    ## 2       2     Belgium   174    30    50    50    50 108.0
    ## 3       3       Italy   175    30    40    50    50 107.5
    ## 4       3       Spain   175    30    40    50    50 107.5
    ## 5       5     Ireland   172    30    50    50    50 107.0
    ## 6       6     Finland   175    20    50    50    50 106.5
    ## 7       6     Germany   177    30    40    40    40 106.5
    ## 8       8     Denmark   174    30    50    40    40 106.0
    ## 9       8 Switzerland   172    30    50    50    40 106.0
    ## 10      8  Luxembourg   172    30    40    50    50 106.0
    ## # ... with 189 more rows
…
